E:\software\edinburgh\git\JPMCMaster\jpmctradeapp\.git\tradeapp\services\trade-report\trade-report-service\src\main\java\jpmc\trade\report\TradeReportApi.java
E:\software\edinburgh\git\JPMCMaster\jpmctradeapp\.git\tradeapp\services\trade-report\trade-report-service\src\main\java\jpmc\trade\report\TradeReportConfiguration.java
E:\software\edinburgh\git\JPMCMaster\jpmctradeapp\.git\tradeapp\services\trade-report\trade-report-service\src\main\java\jpmc\trade\report\TradeReportService.java
E:\software\edinburgh\git\JPMCMaster\jpmctradeapp\.git\tradeapp\services\trade-report\trade-report-service\src\main\java\jpmc\trade\report\CommonUtilities.java
